{
    "componentChunkName": "component---node-modules-gatsby-theme-buzzing-src-gatsby-theme-timeline-templates-posts-query-js",
    "path": "/page/12",
    "result": {"data":{"site":{"siteMetadata":{"title":"业余项目分享交流","author":"Buzzing.cc","description":"用中文浏览reddit业余项目讨论","keywords":["buzzing","业余项目","程序员"],"siteUrl":"https://sideproject.buzzing.cc","telegram":"@buzzingcc","iconUrl":"https://sideproject.buzzing.cc/avatar.png","defaultSocialImageUrl":null,"social":[{"name":"SideProject","url":"https://www.reddit.com/r/SideProject/","external":true},{"name":"Buzzing","url":"https://www.buzzing.cc/","external":true}],"menuLinks":[],"disqus":null,"utterances":null,"localize":[{"title":"Buzzing on Side Project","description":"See what's buzzing on Side Project in your native language","keywords":["buzzing","Side Project"],"locale":"en","social":{"name":null,"url":null,"external":null},"menuLinks":[{"name":"Weekly Selection","url":"/issues","external":null}]},{"title":"業餘項目分享交流","description":"用中文瀏覽reddit業餘項目討論","keywords":["buzzing","業餘項目","程序員"],"locale":"zh-Hant","social":null,"menuLinks":[]},{"title":"サイドプロジェクト","description":"人気のサイドプロジェクトを日本語で閲覧","keywords":["buzzing","サイドプロジェクト"],"locale":"ja","social":null,"menuLinks":[]}]}},"tagsGroup":{"group":[{"fieldValue":"SideProject","totalCount":556},{"fieldValue":"reddit","totalCount":556}]},"allBlogPost":{"nodes":[{"id":"RedditPost-pzt8h7","excerpt":"","slug":"/reddit/r/SideProject/comments/pzt8h7/watchvideobylink_allows_you_to_watch_download/","title":"WatchVideoByLink allows you to Watch, Download Full, Trimmed, Stream public video URLs in a custom video player, when downloaded videos can be organized/edited/shared, supports MP4/WebM/HLS/MPEG-DASH video types","date":"October 02, 2021","dateISO":"2021-10-02T13:01:06.000Z","datetime":"2021-10-02 13:01","tags":["SideProject","reddit"],"image":null,"imageAlt":"Reddit Image","__typename":"SocialMediaPost","provider":"Reddit","thirdPartyId":"pzt8h7","url":"https://www.reddit.com/r/SideProject/comments/pzt8h7/watchvideobylink_allows_you_to_watch_download/","originalUrl":"https://www.reddit.com/r/SideProject/comments/pzt8h7/watchvideobylink_allows_you_to_watch_download/","imageRemote":"https://external-preview.redd.it/osL48UqE5ltRH_Q7BnykfQJfuIyU2snrXRLGR6kijrA.jpg?width=1080&crop=smart&auto=webp&s=e26e92fd84cd76e76a2eb4ffb2dc09df9d664a25","video":null,"channel":"SideProject","channelUrl":"https://www.reddit.com/r/SideProject","author":"pakonsy","authorUrl":"https://www.reddit.com/user/pakonsy","authorImageRemote":null,"authorImage":null,"authorSlug":"pakonsy","score":5,"views":null,"sharedCount":null,"likeCount":null,"sharedContent":null,"parent":{"localize":[{"title":"WatchVideoByLinkは、公開されているビデオのURLをカスタムビデオプレーヤーで視聴、フル、トリミング、ストリームをダウンロードすることができ、ダウンロードしたビデオを整理/編集/共有することができます。","the_new_excerpt":null,"locale":"ja"},{"title":"WatchVideoByLink允许你在自定义视频播放器中观看、下载完整的、修剪过的、流式的公共视频URL，当下载的视频可以被组织/编辑/共享，支持MP4/WebM/HLS/MPEG-DASH视频类型","the_new_excerpt":null,"locale":"zh"},{"title":"WatchVideoByLink允許你在自定義視頻播放器中觀看、下載完整的、修剪過的、流式的公共視頻URL，當下載的視頻可以被組織/編輯/共享，支持MP4/WebM/HLS/MPEG-DASH視頻類型","the_new_excerpt":null,"locale":"zh-Hant"}]}},{"id":"RedditPost-pzlvrh","excerpt":"Hoping to hear some insight about peoples experience with CS/coding and how they\ngot to the point where they have the expertise to create such cool projects\n(sorry if this isn't an appropriate type of post for this sub). I browse posts\non here regularly and am always blown away by what you people…","slug":"/reddit/r/SideProject/comments/pzlvrh/anyone_self_taught_successfully_turn_a_side/","title":"Anyone self taught & successfully turn a side project into a product?","date":"October 02, 2021","dateISO":"2021-10-02T03:45:40.000Z","datetime":"2021-10-02 03:45","tags":["SideProject","reddit"],"image":null,"imageAlt":null,"__typename":"SocialMediaPost","provider":"Reddit","thirdPartyId":"pzlvrh","url":"https://www.reddit.com/r/SideProject/comments/pzlvrh/anyone_self_taught_successfully_turn_a_side/","originalUrl":"https://www.reddit.com/r/SideProject/comments/pzlvrh/anyone_self_taught_successfully_turn_a_side/","imageRemote":null,"video":null,"channel":"SideProject","channelUrl":"https://www.reddit.com/r/SideProject","author":"pizzaxp","authorUrl":"https://www.reddit.com/user/pizzaxp","authorImageRemote":null,"authorImage":null,"authorSlug":"pizzaxp","score":5,"views":null,"sharedCount":null,"likeCount":null,"sharedContent":null,"parent":{"localize":[{"title":"独学でサイドプロジェクトを製品化することに成功した人はいますか？","the_new_excerpt":"皆さんのCS/コーディングの経験や、どのようにしてこのようなクールなプロジェクトを作る専門知識を身につけたのかなど、洞察力に富んだお話を伺いたいと思っています。\nこのようなクールなプロジェクトを作成するための専門知識を持つに至ったのかについての洞察を期待しています。\n(もし、このサブカテゴリにふさわしい投稿でなかったらごめんなさい)。ここの投稿を定期的に見ていますが\n私はここの投稿を定期的に閲覧していますが、皆さんの作品にはいつも驚かされます。","locale":"ja"},{"title":"有没有人自学成才，并成功地将一个副业变成产品？","the_new_excerpt":"希望能听到一些关于人们的CS/编码经验的见解，以及他们如何\n的经验，以及他们是如何达到拥有专业知识来创造如此酷的项目的地步的。\n(如果这不是一个合适的帖子，请原谅）。) 我经常浏览这里的帖子\n我经常浏览这里的帖子，并且总是被你们这些人的作品所震撼...","locale":"zh"},{"title":"有沒有人自學成才，併成功地將一個副業變成產品？","the_new_excerpt":"希望能聽到一些關於人們的CS/編碼經驗的見解，以及他們如何\n的經驗，以及他們是如何達到擁有專業知識來創造如此酷的項目的地步的。\n(如果這不是一個合適的帖子，請原諒）。) 我經常瀏覽這裏的帖子\n我經常瀏覽這裏的帖子，並且總是被你們這些人的作品所震撼...","locale":"zh-Hant"}]}},{"id":"RedditPost-pzgd8f","excerpt":"","slug":"/reddit/r/SideProject/comments/pzgd8f/borgo_a_python_library_app_for_simple/","title":"Borgo - a python library + app for simple semi-automation (code that require human input).","date":"October 01, 2021","dateISO":"2021-10-01T23:10:52.000Z","datetime":"2021-10-01 23:10","tags":["SideProject","reddit"],"image":null,"imageAlt":"Reddit Image","__typename":"SocialMediaPost","provider":"Reddit","thirdPartyId":"pzgd8f","url":"https://www.reddit.com/r/SideProject/comments/pzgd8f/borgo_a_python_library_app_for_simple/","originalUrl":"https://www.reddit.com/r/SideProject/comments/pzgd8f/borgo_a_python_library_app_for_simple/","imageRemote":"https://external-preview.redd.it/um2_9_-tfWUCJUoj6S4nQCcqu3FSrSAqce6OWbkq89A.png?width=1080&crop=smart&auto=webp&s=2ae3364eef8808465249de75eb4da729ec6e7000","video":null,"channel":"SideProject","channelUrl":"https://www.reddit.com/r/SideProject","author":"nanermaner","authorUrl":"https://www.reddit.com/user/nanermaner","authorImageRemote":null,"authorImage":null,"authorSlug":"nanermaner","score":6,"views":null,"sharedCount":null,"likeCount":null,"sharedContent":null,"parent":{"localize":[{"title":"Borgo - シンプルな半自動化（人間の入力を必要とするコード）のためのpythonライブラリとアプリです。","the_new_excerpt":null,"locale":"ja"},{"title":"Borgo - 一个用于简单的半自动化（需要人类输入的代码）的python库+应用程序。","the_new_excerpt":null,"locale":"zh"},{"title":"Borgo - 一個用於簡單的半自動化（需要人類輸入的代碼）的python庫+應用程序。","the_new_excerpt":null,"locale":"zh-Hant"}]}},{"id":"RedditPost-pzeb5c","excerpt":"","slug":"/reddit/r/SideProject/comments/pzeb5c/i_built_a_simple_tool_for_youtubers_to_collect/","title":"I built a simple tool for youtubers to collect critique reviews","date":"October 01, 2021","dateISO":"2021-10-01T19:55:29.000Z","datetime":"2021-10-01 19:55","tags":["SideProject","reddit"],"image":null,"imageAlt":"Reddit Image","__typename":"SocialMediaPost","provider":"Reddit","thirdPartyId":"pzeb5c","url":"https://www.reddit.com/r/SideProject/comments/pzeb5c/i_built_a_simple_tool_for_youtubers_to_collect/","originalUrl":"https://www.reddit.com/r/SideProject/comments/pzeb5c/i_built_a_simple_tool_for_youtubers_to_collect/","imageRemote":"https://i.redd.it/y8vlz9f0wvq71.png?width=640&crop=smart&auto=webp&s=342aeaa5d8d19abe03b4e6dc01f468df5ff95fac","video":null,"channel":"SideProject","channelUrl":"https://www.reddit.com/r/SideProject","author":"SituationTight7033","authorUrl":"https://www.reddit.com/user/SituationTight7033","authorImageRemote":null,"authorImage":null,"authorSlug":"SituationTight7033","score":6,"views":null,"sharedCount":null,"likeCount":null,"sharedContent":null,"parent":{"localize":[{"title":"ユーチューバーが批評レビューを集めるためのシンプルなツールを作ってみた","the_new_excerpt":null,"locale":"ja"},{"title":"我建立了一个简单的工具，供优酷网友收集批评性评论","the_new_excerpt":null,"locale":"zh"},{"title":"我建立了一個簡單的工具，供優酷網友收集批評性評論","the_new_excerpt":null,"locale":"zh-Hant"}]}},{"id":"RedditPost-pz80ls","excerpt":"Hi there folks!\n\nI wrote an in-depth guide for product managers and serial entrepreneurs. It's\nabout developing a grocery delivery app. There you will find:\n\n 1. Why is now the most relevant time to develop a food delivery app?\n\n 2. what does the cost of developing a food delivery app depend on?\n\n…","slug":"/reddit/r/SideProject/comments/pz80ls/how_to_make_an_ondemand_grocery_delivery_app_a/","title":"How to Make an On-Demand Grocery Delivery App: A Comprehensive Guide","date":"October 01, 2021","dateISO":"2021-10-01T18:45:42.000Z","datetime":"2021-10-01 18:45","tags":["SideProject","reddit"],"image":null,"imageAlt":null,"__typename":"SocialMediaPost","provider":"Reddit","thirdPartyId":"pz80ls","url":"https://www.reddit.com/r/SideProject/comments/pz80ls/how_to_make_an_ondemand_grocery_delivery_app_a/","originalUrl":"https://www.reddit.com/r/SideProject/comments/pz80ls/how_to_make_an_ondemand_grocery_delivery_app_a/","imageRemote":null,"video":null,"channel":"SideProject","channelUrl":"https://www.reddit.com/r/SideProject","author":"Spdload","authorUrl":"https://www.reddit.com/user/Spdload","authorImageRemote":null,"authorImage":null,"authorSlug":"Spdload","score":6,"views":null,"sharedCount":null,"likeCount":null,"sharedContent":null,"parent":{"localize":[{"title":"オンデマンド食料品宅配アプリの作り方。包括的なガイド","the_new_excerpt":"皆さん、こんにちは。\n\n私は、プロダクトマネージャーとシリアルアントレプレナーのために、詳細なガイドを書きました。それは\n食料品配送アプリの開発についてです。そこには、以下のことが書かれています。\n\n 1. なぜ今が食料品配達アプリの開発に最も適した時期なのか？\n\n 2.食料品宅配アプリの開発コストは何に依存するのか？\n\n...","locale":"ja"},{"title":"如何制作一个按需提供杂货的应用程序。一个全面的指南","the_new_excerpt":"大家好!\n\n我为产品经理和连续创业者写了一份深度指南。它是\n关于开发一个食品杂货配送应用程序。在那里你会发现。\n\n 1. 为什么现在是开发食品配送应用的最相关时间？\n\n 2.开发一个食品递送应用程序的成本取决于什么？\n\n...","locale":"zh"},{"title":"如何製作一個按需提供雜貨的應用程序。一個全面的指南","the_new_excerpt":"大家好!\n\n我爲產品經理和連續創業者寫了一份深度指南。它是\n關於開發一個食品雜貨配送應用程序。在那裏你會發現。\n\n 1. 爲什麼現在是開發食品配送應用的最相關時間？\n\n 2.開發一個食品遞送應用程序的成本取決於什麼？\n\n...","locale":"zh-Hant"}]}},{"id":"RedditPost-pz354b","excerpt":"Today I finally launched my first mobile app, Cinevite\n[https://www.cinevite.com?utm_source=reddit&utm_medium=web]. Cinevite is a\nsimple app that lets you create event cards for movies and shows that can easily\nbe shared on social. The idea is simple but it sure didn't start that way. Like\nthe…","slug":"/reddit/r/SideProject/comments/pz354b/from_delusions_of_grandeur_to_a_simple_mvp_my/","title":"From delusions of grandeur to a simple MVP. My first business and mobile app are finally out the door.","date":"October 01, 2021","dateISO":"2021-10-01T13:30:29.000Z","datetime":"2021-10-01 13:30","tags":["SideProject","reddit"],"image":null,"imageAlt":null,"__typename":"SocialMediaPost","provider":"Reddit","thirdPartyId":"pz354b","url":"https://www.reddit.com/r/SideProject/comments/pz354b/from_delusions_of_grandeur_to_a_simple_mvp_my/","originalUrl":"https://www.reddit.com/r/SideProject/comments/pz354b/from_delusions_of_grandeur_to_a_simple_mvp_my/","imageRemote":null,"video":null,"channel":"SideProject","channelUrl":"https://www.reddit.com/r/SideProject","author":"SlimKale","authorUrl":"https://www.reddit.com/user/SlimKale","authorImageRemote":null,"authorImage":null,"authorSlug":"SlimKale","score":6,"views":null,"sharedCount":null,"likeCount":null,"sharedContent":null,"parent":{"localize":[{"title":"誇大妄想からシンプルなMVPへ。私の最初のビジネスとモバイルアプリは、ようやくドアを開けました。","the_new_excerpt":"本日、ついに初のモバイルアプリ「Cinevite」を発表しました。\n[https://www.cinevite.com?utm_source=reddit&utm_medium=web]をリリースしました。Cineviteは\n映画やショーのイベントカードを作ることができるシンプルなアプリで、社会的に簡単に共有することができます。\nソーシャルで共有することができます。アイデアはシンプルですが、最初からそうだったわけではありません。例えば\nその","locale":"ja"},{"title":"从妄想到简单的MVP。我的第一个业务和移动应用程序终于出炉了。","the_new_excerpt":"今天我终于推出了我的第一个移动应用程序，Cinevite\n[https://www.cinevite.com?utm_source=reddit&utm_medium=web]。Cinevite是一个\n一个简单的应用程序，让你为电影和节目创建活动卡片，可以很容易地在社会上分享。\n在社交网络上分享。这个想法很简单，但一开始肯定不是这样的。就像\n的。","locale":"zh"},{"title":"從妄想到簡單的MVP。我的第一個業務和移動應用程序終於出爐了。","the_new_excerpt":"今天我終於推出了我的第一個移動應用程序，Cinevite\n[https://www.cinevite.com?utm_source=reddit&utm_medium=web]。Cinevite是一個\n一個簡單的應用程序，讓你爲電影和節目創建活動卡片，可以很容易地在社會上分享。\n在社交網絡上分享。這個想法很簡單，但一開始肯定不是這樣的。就像\n的。","locale":"zh-Hant"}]}}]}},"pageContext":{"basePath":"/","pageType":"home","tagsFilter":{"date":{"gt":"2000-12-25T10:54:58.000Z"}},"filter":{"date":{"gt":"2000-12-25T10:54:58.000Z"}},"limit":50,"skip":550,"totalPages":12,"total":556,"currentPage":12,"maxWidth":1024,"maxHeight":512,"siteMetadata":null,"locale":"zh","hrefLang":"zh-Hans","originalPath":"/page/12","dateFormat":"YYYY-MM-DD"}},
    "staticQueryHashes": ["1239077767","2744905544","3025052997","3280999885"]}