{
    "componentChunkName": "component---node-modules-gatsby-theme-buzzing-src-gatsby-theme-timeline-templates-posts-query-js",
    "path": "/ja/tags/side-project/page/2",
    "result": {"data":{"site":{"siteMetadata":{"title":"业余项目分享交流","author":"Buzzing.cc","description":"用中文浏览reddit业余项目讨论","keywords":["buzzing","业余项目","程序员"],"siteUrl":"https://sideproject.buzzing.cc","telegram":"@buzzingcc","iconUrl":"https://sideproject.buzzing.cc/avatar.png","defaultSocialImageUrl":null,"social":[{"name":"SideProject","url":"https://www.reddit.com/r/SideProject/","external":true},{"name":"Buzzing","url":"https://www.buzzing.cc/","external":true}],"menuLinks":[],"disqus":null,"utterances":null,"localize":[{"title":"Buzzing on Side Project","description":"See what's buzzing on Side Project in your native language","keywords":["buzzing","Side Project"],"locale":"en","social":{"name":null,"url":null,"external":null},"menuLinks":[{"name":"Weekly Selection","url":"/issues","external":null}]},{"title":"業餘項目分享交流","description":"用中文瀏覽reddit業餘項目討論","keywords":["buzzing","業餘項目","程序員"],"locale":"zh-Hant","social":null,"menuLinks":[]},{"title":"サイドプロジェクト","description":"人気のサイドプロジェクトを日本語で閲覧","keywords":["buzzing","サイドプロジェクト"],"locale":"ja","social":null,"menuLinks":[]}]}},"tagsGroup":{"group":[{"fieldValue":"SideProject","totalCount":516},{"fieldValue":"reddit","totalCount":516}]},"allBlogPost":{"nodes":[{"id":"RedditPost-q0uos2","excerpt":"","slug":"/reddit/r/SideProject/comments/q0uos2/textured_sphere_rendering_running_at_30_fps_on/","title":"Textured sphere rendering running at 30 fps on the Gameboy Advance. It's still got some issues, but I wanted to show off what I've got so far.","date":"October 04, 2021","dateISO":"2021-10-04T02:22:28.000Z","datetime":"2021-10-04 02:22","tags":["SideProject","reddit"],"image":null,"imageAlt":null,"__typename":"SocialMediaPost","provider":"Reddit","thirdPartyId":"q0uos2","url":"https://www.reddit.com/r/SideProject/comments/q0uos2/textured_sphere_rendering_running_at_30_fps_on/","originalUrl":"https://www.reddit.com/r/SideProject/comments/q0uos2/textured_sphere_rendering_running_at_30_fps_on/","imageRemote":null,"video":{"url":"https://www.redditmedia.com/r/SideProject/comments/q0uos2/textured_sphere_rendering_running_at_30_fps_on/?ref_source=embed&amp;ref=share&amp;embed=true","embed":true,"width":1280,"height":720},"channel":"SideProject","channelUrl":"https://www.reddit.com/r/SideProject","author":"origamiscienceguy","authorUrl":"https://www.reddit.com/user/origamiscienceguy","authorImageRemote":null,"authorImage":null,"authorSlug":"origamiscienceguy","score":5,"views":null,"sharedCount":null,"likeCount":null,"sharedContent":null,"parent":{"localize":[{"title":"テクスチャースフィアレンダリングをゲームボーイアドバンスで30fpsで実行しています。まだまだ課題はありますが、これまでの成果をお見せしたいと思います。","the_new_excerpt":null,"locale":"ja"},{"title":"在Gameboy Advance上以30 fps运行的纹理球体渲染。它仍然有一些问题，但我想展示一下我目前的成果。","the_new_excerpt":null,"locale":"zh"},{"title":"在Gameboy Advance上以30 fps運行的紋理球體渲染。它仍然有一些問題，但我想展示一下我目前的成果。","the_new_excerpt":null,"locale":"zh-Hant"}]}},{"id":"RedditPost-q0i3vu","excerpt":"Hey there r/SideProject [/r/SideProject]\n\nEvery now and then I do a full-on guide for small businesses on matters relating\nto SEO and Digital Marketing. This one is going to be a bit long but trust me\nwhen I say that you can tackle the majority of the points I am going to discuss\nwithin a day. I…","slug":"/reddit/r/SideProject/comments/q0i3vu/how_to_increase_your_local_audience_reach_in_less/","title":"How to increase your local audience reach in less than a day's work","date":"October 04, 2021","dateISO":"2021-10-04T01:38:13.000Z","datetime":"2021-10-04 01:38","tags":["SideProject","reddit"],"image":null,"imageAlt":"Reddit Image","__typename":"SocialMediaPost","provider":"Reddit","thirdPartyId":"q0i3vu","url":"https://www.reddit.com/r/SideProject/comments/q0i3vu/how_to_increase_your_local_audience_reach_in_less/","originalUrl":"https://www.reddit.com/r/SideProject/comments/q0i3vu/how_to_increase_your_local_audience_reach_in_less/","imageRemote":"https://external-preview.redd.it/0s2Df4T4TUFKXNOV1Z2ZUj4VuvImsOXFSnBhFzZexiE.jpg?width=320&crop=smart&auto=webp&s=8038a5c4a9a162d6638134d3f1b9ec7053bfc991","video":null,"channel":"SideProject","channelUrl":"https://www.reddit.com/r/SideProject","author":"chiran1234","authorUrl":"https://www.reddit.com/user/chiran1234","authorImageRemote":null,"authorImage":null,"authorSlug":"chiran1234","score":5,"views":null,"sharedCount":null,"likeCount":null,"sharedContent":null,"parent":{"localize":[{"title":"1日もかからずにローカルオーディエンスへのリーチを拡大する方法","the_new_excerpt":"こんにちは、r/SideProject [/r/SideProject]です。\n\n時々、私は中小企業のために、SEOとデジタルマーケティングに関連した事項の完全なガイドをしています。\nに関連する事柄について、中小企業のための完全なガイドをしています。このガイドは少し長くなりますが、私を信じてください。\n今回は少し長くなりますが、これから説明するポイントの大半は1日で取り組めます。\n一日で解決できます。I...","locale":"ja"},{"title":"如何在不到一天的时间内提高你的本地受众覆盖率","the_new_excerpt":"嗨，r/SideProject [/r/SideProject] 。\n\n每隔一段时间，我都会为小企业做一个完整的指南，内容涉及与\n指南，其中包括SEO和数字营销。这篇文章会有点长，但请相信我\n当我说，你可以在一天之内解决我将要讨论的大部分问题时\n在一天之内解决。I...","locale":"zh"},{"title":"如何在不到一天的時間內提高你的本地受衆覆蓋率","the_new_excerpt":"嗨，r/SideProject [/r/SideProject] 。\n\n每隔一段時間，我都會爲小企業做一個完整的指南，內容涉及與\n指南，其中包括SEO和數字營銷。這篇文章會有點長，但請相信我\n當我說，你可以在一天之內解決我將要討論的大部分問題時\n在一天之內解決。I...","locale":"zh-Hant"}]}},{"id":"RedditPost-q0mtje","excerpt":"Hello guys,\n\nI have developed a little MVP that allows you to easily post YouTube videos to\nInstagram.\n\nIt's called YT2IG.com [https://www.yt2ig.com/]\n\nYT2IG.com - Post YouTube videos to…","slug":"/reddit/r/SideProject/comments/q0mtje/easily_post_youtube_videos_to_instagram/","title":"Easily Post YouTube Videos To Instagram","date":"October 03, 2021","dateISO":"2021-10-03T22:43:33.000Z","datetime":"2021-10-03 22:43","tags":["SideProject","reddit"],"image":null,"imageAlt":null,"__typename":"SocialMediaPost","provider":"Reddit","thirdPartyId":"q0mtje","url":"https://www.reddit.com/r/SideProject/comments/q0mtje/easily_post_youtube_videos_to_instagram/","originalUrl":"https://www.reddit.com/r/SideProject/comments/q0mtje/easily_post_youtube_videos_to_instagram/","imageRemote":null,"video":null,"channel":"SideProject","channelUrl":"https://www.reddit.com/r/SideProject","author":"rockenrollas","authorUrl":"https://www.reddit.com/user/rockenrollas","authorImageRemote":null,"authorImage":null,"authorSlug":"rockenrollas","score":5,"views":null,"sharedCount":null,"likeCount":null,"sharedContent":null,"parent":{"localize":[{"title":"YouTubeの動画を簡単にInstagramに投稿できます。","the_new_excerpt":"皆さん、こんにちは。\n\nYouTubeの動画を簡単に投稿できる小さなMVPを開発しました。\nインスタグラムに投稿することができます。\n\nYT2IG.com [https://www.yt2ig.com/]というものです。\n\nYT2IG.com - YouTubeの動画をインスタグラムに投稿...","locale":"ja"},{"title":"轻松地将YouTube视频发布到Instagram上","the_new_excerpt":"大家好。\n\n我开发了一个小小的MVP，可以让你轻松地将YouTube视频发布到\nInstagram。\n\n它被称为YT2IG.com [https://www.yt2ig.com/]\n\nYT2IG.com - 发布YouTube视频到Instagram。","locale":"zh"},{"title":"輕鬆地將YouTube視頻發佈到Instagram上","the_new_excerpt":"大家好。\n\n我開發了一個小小的MVP，可以讓你輕鬆地將YouTube視頻發佈到\nInstagram。\n\n它被稱爲YT2IG.com [https://www.yt2ig.com/]\n\nYT2IG.com - 發佈YouTube視頻到Instagram。","locale":"zh-Hant"}]}},{"id":"RedditPost-pzzmu0","excerpt":"","slug":"/reddit/r/SideProject/comments/pzzmu0/easyjob_keep_and_execute_your_powershell_scripts/","title":"EasyJob - keep and execute your PowerShell scripts from one interface","date":"October 03, 2021","dateISO":"2021-10-03T16:02:55.000Z","datetime":"2021-10-03 16:02","tags":["SideProject","reddit"],"image":null,"imageAlt":"Reddit Image","__typename":"SocialMediaPost","provider":"Reddit","thirdPartyId":"pzzmu0","url":"https://www.reddit.com/r/SideProject/comments/pzzmu0/easyjob_keep_and_execute_your_powershell_scripts/","originalUrl":"https://www.reddit.com/r/SideProject/comments/pzzmu0/easyjob_keep_and_execute_your_powershell_scripts/","imageRemote":"https://external-preview.redd.it/8kPPry9OmAEObYYgqbsU2sU8J6TNFf47-OuVy_Xn12c.jpg?width=1080&crop=smart&auto=webp&s=cf8ce6544acb4794aa72f4db33db893971a49ec7","video":null,"channel":"SideProject","channelUrl":"https://www.reddit.com/r/SideProject","author":"akshin1995","authorUrl":"https://www.reddit.com/user/akshin1995","authorImageRemote":null,"authorImage":null,"authorSlug":"akshin1995","score":5,"views":null,"sharedCount":null,"likeCount":null,"sharedContent":null,"parent":{"localize":[{"title":"EasyJob - 1つのインターフェイスからPowerShellスクリプトを保持し、実行することができます。","the_new_excerpt":null,"locale":"ja"},{"title":"EasyJob - 在一个界面上保存和执行你的PowerShell脚本","the_new_excerpt":null,"locale":"zh"},{"title":"EasyJob - 在一個界面上保存和執行你的PowerShell腳本","the_new_excerpt":null,"locale":"zh-Hant"}]}},{"id":"RedditPost-q0fpu2","excerpt":"","slug":"/reddit/r/SideProject/comments/q0fpu2/sunday_of_an_indie_maker/","title":"Sunday of an indie maker","date":"October 03, 2021","dateISO":"2021-10-03T13:27:11.000Z","datetime":"2021-10-03 13:27","tags":["SideProject","reddit"],"image":null,"imageAlt":"Reddit Image","__typename":"SocialMediaPost","provider":"Reddit","thirdPartyId":"q0fpu2","url":"https://www.reddit.com/r/SideProject/comments/q0fpu2/sunday_of_an_indie_maker/","originalUrl":"https://www.reddit.com/r/SideProject/comments/q0fpu2/sunday_of_an_indie_maker/","imageRemote":"https://i.redd.it/zy6rqby3x7r71.jpg?width=320&crop=smart&auto=webp&s=5b7e94d0280ca999b62c66df2ee8948cc0d00742","video":null,"channel":"SideProject","channelUrl":"https://www.reddit.com/r/SideProject","author":"lamacorn_","authorUrl":"https://www.reddit.com/user/lamacorn_","authorImageRemote":null,"authorImage":null,"authorSlug":"lamacorn_","score":5,"views":null,"sharedCount":null,"likeCount":null,"sharedContent":null,"parent":{"localize":[{"title":"インディーズメーカーの日曜日","the_new_excerpt":null,"locale":"ja"},{"title":"一个独立制片人的星期天","the_new_excerpt":null,"locale":"zh"},{"title":"一個獨立製片人的星期天","the_new_excerpt":null,"locale":"zh-Hant"}]}},{"id":"RedditPost-q0dmms","excerpt":"","slug":"/reddit/r/SideProject/comments/q0dmms/this_app_lets_you_generate_thousands_of_nft/","title":"This app lets you generate thousands of NFT without coding, It's FREE and no ads!","date":"October 03, 2021","dateISO":"2021-10-03T09:25:04.000Z","datetime":"2021-10-03 09:25","tags":["SideProject","reddit"],"image":null,"imageAlt":"Reddit Image","__typename":"SocialMediaPost","provider":"Reddit","thirdPartyId":"q0dmms","url":"https://www.reddit.com/r/SideProject/comments/q0dmms/this_app_lets_you_generate_thousands_of_nft/","originalUrl":"https://www.reddit.com/r/SideProject/comments/q0dmms/this_app_lets_you_generate_thousands_of_nft/","imageRemote":"https://external-preview.redd.it/9GVLHwOFX_P600c6vGG3_FGjLYcXNN-JDKbqLY41P0k.jpg?width=1080&crop=smart&auto=webp&s=3a35f7eed8e1536c1288bd5d5bf43f730815add8","video":null,"channel":"SideProject","channelUrl":"https://www.reddit.com/r/SideProject","author":"darkplaceguy1","authorUrl":"https://www.reddit.com/user/darkplaceguy1","authorImageRemote":null,"authorImage":null,"authorSlug":"darkplaceguy1","score":5,"views":null,"sharedCount":null,"likeCount":null,"sharedContent":null,"parent":{"localize":[{"title":"このアプリは、コーディングなしで何千ものNFTを生成することができます、それは無料で、広告はありません","the_new_excerpt":null,"locale":"ja"},{"title":"这个应用程序让你无需编码就能生成数以千计的NFT，它是免费的，没有广告!","the_new_excerpt":null,"locale":"zh"},{"title":"這個應用程序讓你無需編碼就能生成數以千計的NFT，它是免費的，沒有廣告!","the_new_excerpt":null,"locale":"zh-Hant"}]}},{"id":"RedditPost-q0538p","excerpt":"","slug":"/reddit/r/SideProject/comments/q0538p/memory_maps_the_best_way_to_remember_everything/","title":"Memory Maps | The best way to remember everything you study","date":"October 03, 2021","dateISO":"2021-10-03T01:22:02.000Z","datetime":"2021-10-03 01:22","tags":["SideProject","reddit"],"image":null,"imageAlt":"Reddit Image","__typename":"SocialMediaPost","provider":"Reddit","thirdPartyId":"q0538p","url":"https://www.reddit.com/r/SideProject/comments/q0538p/memory_maps_the_best_way_to_remember_everything/","originalUrl":"https://www.reddit.com/r/SideProject/comments/q0538p/memory_maps_the_best_way_to_remember_everything/","imageRemote":"https://external-preview.redd.it/Q9evMvWWn7XTL13IbnY3h1FNSGLHEu2cusRzlxqTsZk.jpg?width=1080&crop=smart&auto=webp&s=6003ad70bd1b2cb41f9c7ae719fa473975fc3d7f","video":null,"channel":"SideProject","channelUrl":"https://www.reddit.com/r/SideProject","author":"anthony_diamond","authorUrl":"https://www.reddit.com/user/anthony_diamond","authorImageRemote":null,"authorImage":null,"authorSlug":"anthony_diamond","score":5,"views":null,"sharedCount":null,"likeCount":null,"sharedContent":null,"parent":{"localize":[{"title":"メモリーマップ｜勉強したことを思い出すのに最適な方法","the_new_excerpt":null,"locale":"ja"},{"title":"记忆图谱 | 记住所有学习内容的最佳方法","the_new_excerpt":null,"locale":"zh"},{"title":"記憶圖譜 | 記住所有學習內容的最佳方法","the_new_excerpt":null,"locale":"zh-Hant"}]}},{"id":"RedditPost-q00wa0","excerpt":"I've made a Twitter Bot that can do reverse image search of Tweeted Images.\n@SearchThisImage [https://www.twitter.com/searchthisimage]. You can reply to any\ntweet that contains an image by mentioning the Bot. It will search for the image\nin Google and reply to your tweet with the first URL returned.…","slug":"/reddit/r/SideProject/comments/q00wa0/bot_to_do_reverse_image_search_of_tweeted_images/","title":"Bot to do Reverse Image Search of Tweeted Images","date":"October 02, 2021","dateISO":"2021-10-02T20:50:47.000Z","datetime":"2021-10-02 20:50","tags":["SideProject","reddit"],"image":null,"imageAlt":null,"__typename":"SocialMediaPost","provider":"Reddit","thirdPartyId":"q00wa0","url":"https://www.reddit.com/r/SideProject/comments/q00wa0/bot_to_do_reverse_image_search_of_tweeted_images/","originalUrl":"https://www.reddit.com/r/SideProject/comments/q00wa0/bot_to_do_reverse_image_search_of_tweeted_images/","imageRemote":null,"video":null,"channel":"SideProject","channelUrl":"https://www.reddit.com/r/SideProject","author":"bills2go","authorUrl":"https://www.reddit.com/user/bills2go","authorImageRemote":null,"authorImage":null,"authorSlug":"bills2go","score":5,"views":null,"sharedCount":null,"likeCount":null,"sharedContent":null,"parent":{"localize":[{"title":"ツイートされた画像の逆引き検索を行うボット","the_new_excerpt":"ツイートされた画像の逆引き検索ができるTwitter Botを作ってみました。\n@SearchThisImage [https://www.twitter.com/searchthisimage]です。画像を含むツイートには、このBotに言及することで、返信することができます。\n画像を含むツイートに返信して、このBotに言及すると その画像をGoogleで検索して\nGoogleで画像を検索して、最初に返ってきたURLをツイートに返信します....","locale":"ja"},{"title":"用机器人对推特上的图片进行反向搜索","the_new_excerpt":"我做了一个推特机器人，可以对推特上的图片进行反向搜索。\n@SearchThisImage [https://www.twitter.com/searchthisimage]。你可以回复任何\n含有图片的推特，并提及该机器人。它将在谷歌上搜索该图片\n它将在谷歌中搜索图片，并以返回的第一个URL回复你的推特....。","locale":"zh"},{"title":"用機器人對推特上的圖片進行反向搜索","the_new_excerpt":"我做了一個推特機器人，可以對推特上的圖片進行反向搜索。\n@SearchThisImage [https://www.twitter.com/searchthisimage]。你可以回覆任何\n含有圖片的推特，並提及該機器人。它將在谷歌上搜索該圖片\n它將在谷歌中搜索圖片，並以返回的第一個URL回覆你的推特....。","locale":"zh-Hant"}]}},{"id":"RedditPost-pzfmf4","excerpt":"","slug":"/reddit/r/SideProject/comments/pzfmf4/pola_swipe_filter_effects/","title":"Pola - Swipe Filter Effects","date":"October 02, 2021","dateISO":"2021-10-02T17:42:19.000Z","datetime":"2021-10-02 17:42","tags":["SideProject","reddit"],"image":null,"imageAlt":null,"__typename":"SocialMediaPost","provider":"Reddit","thirdPartyId":"pzfmf4","url":"https://www.reddit.com/r/SideProject/comments/pzfmf4/pola_swipe_filter_effects/","originalUrl":"https://www.reddit.com/r/SideProject/comments/pzfmf4/pola_swipe_filter_effects/","imageRemote":null,"video":{"url":"https://www.redditmedia.com/r/SideProject/comments/pzfmf4/pola_swipe_filter_effects/?ref_source=embed&amp;ref=share&amp;embed=true","embed":true,"width":498,"height":1080},"channel":"SideProject","channelUrl":"https://www.reddit.com/r/SideProject","author":"gyummy","authorUrl":"https://www.reddit.com/user/gyummy","authorImageRemote":null,"authorImage":null,"authorSlug":"gyummy","score":5,"views":null,"sharedCount":null,"likeCount":null,"sharedContent":null,"parent":{"localize":[{"title":"Pola - スワイプフィルター効果","the_new_excerpt":null,"locale":"ja"},{"title":"Pola - 擦拭过滤器效果","the_new_excerpt":null,"locale":"zh"},{"title":"Pola - 擦拭過濾器效果","the_new_excerpt":null,"locale":"zh-Hant"}]}},{"id":"RedditPost-pzrlg5","excerpt":"","slug":"/reddit/r/SideProject/comments/pzrlg5/braifunnlp_a_free_natural_language_processing/","title":"Braifun-nlp: A free Natural Language Processing tool to help Researchers brain storm their ideas (Alpha release)","date":"October 02, 2021","dateISO":"2021-10-02T14:40:11.000Z","datetime":"2021-10-02 14:40","tags":["SideProject","reddit"],"image":null,"imageAlt":"Reddit Image","__typename":"SocialMediaPost","provider":"Reddit","thirdPartyId":"pzrlg5","url":"https://www.reddit.com/r/SideProject/comments/pzrlg5/braifunnlp_a_free_natural_language_processing/","originalUrl":"https://www.reddit.com/r/SideProject/comments/pzrlg5/braifunnlp_a_free_natural_language_processing/","imageRemote":"https://external-preview.redd.it/_-5oso0rF-XfQVOWjjs1V26N9PUInCVF2grt8Vys9oA.jpg?width=320&crop=smart&auto=webp&s=dcf4c09554d178a5d48c2239d0fb69eb81681b87","video":null,"channel":"SideProject","channelUrl":"https://www.reddit.com/r/SideProject","author":"brainxyz","authorUrl":"https://www.reddit.com/user/brainxyz","authorImageRemote":null,"authorImage":null,"authorSlug":"brainxyz","score":5,"views":null,"sharedCount":null,"likeCount":null,"sharedContent":null,"parent":{"localize":[{"title":"Braifun-nlp: 研究者がアイデアのブレーンストームをするのに役立つ無料の自然言語処理ツール（アルファリリース","the_new_excerpt":null,"locale":"ja"},{"title":"卜睿峰-nlp。一个免费的自然语言处理工具，帮助研究人员头脑风暴他们的想法（Alpha版本）。","the_new_excerpt":null,"locale":"zh"},{"title":"卜睿峯-nlp。一個免費的自然語言處理工具，幫助研究人員頭腦風暴他們的想法（Alpha版本）。","the_new_excerpt":null,"locale":"zh-Hant"}]}},{"id":"RedditPost-pzt8h7","excerpt":"","slug":"/reddit/r/SideProject/comments/pzt8h7/watchvideobylink_allows_you_to_watch_download/","title":"WatchVideoByLink allows you to Watch, Download Full, Trimmed, Stream public video URLs in a custom video player, when downloaded videos can be organized/edited/shared, supports MP4/WebM/HLS/MPEG-DASH video types","date":"October 02, 2021","dateISO":"2021-10-02T13:01:06.000Z","datetime":"2021-10-02 13:01","tags":["SideProject","reddit"],"image":null,"imageAlt":"Reddit Image","__typename":"SocialMediaPost","provider":"Reddit","thirdPartyId":"pzt8h7","url":"https://www.reddit.com/r/SideProject/comments/pzt8h7/watchvideobylink_allows_you_to_watch_download/","originalUrl":"https://www.reddit.com/r/SideProject/comments/pzt8h7/watchvideobylink_allows_you_to_watch_download/","imageRemote":"https://external-preview.redd.it/osL48UqE5ltRH_Q7BnykfQJfuIyU2snrXRLGR6kijrA.jpg?width=1080&crop=smart&auto=webp&s=e26e92fd84cd76e76a2eb4ffb2dc09df9d664a25","video":null,"channel":"SideProject","channelUrl":"https://www.reddit.com/r/SideProject","author":"pakonsy","authorUrl":"https://www.reddit.com/user/pakonsy","authorImageRemote":null,"authorImage":null,"authorSlug":"pakonsy","score":5,"views":null,"sharedCount":null,"likeCount":null,"sharedContent":null,"parent":{"localize":[{"title":"WatchVideoByLinkは、公開されているビデオのURLをカスタムビデオプレーヤーで視聴、フル、トリミング、ストリームをダウンロードすることができ、ダウンロードしたビデオを整理/編集/共有することができます。","the_new_excerpt":null,"locale":"ja"},{"title":"WatchVideoByLink允许你在自定义视频播放器中观看、下载完整的、修剪过的、流式的公共视频URL，当下载的视频可以被组织/编辑/共享，支持MP4/WebM/HLS/MPEG-DASH视频类型","the_new_excerpt":null,"locale":"zh"},{"title":"WatchVideoByLink允許你在自定義視頻播放器中觀看、下載完整的、修剪過的、流式的公共視頻URL，當下載的視頻可以被組織/編輯/共享，支持MP4/WebM/HLS/MPEG-DASH視頻類型","the_new_excerpt":null,"locale":"zh-Hant"}]}},{"id":"RedditPost-pzlvrh","excerpt":"Hoping to hear some insight about peoples experience with CS/coding and how they\ngot to the point where they have the expertise to create such cool projects\n(sorry if this isn't an appropriate type of post for this sub). I browse posts\non here regularly and am always blown away by what you people…","slug":"/reddit/r/SideProject/comments/pzlvrh/anyone_self_taught_successfully_turn_a_side/","title":"Anyone self taught & successfully turn a side project into a product?","date":"October 02, 2021","dateISO":"2021-10-02T03:45:40.000Z","datetime":"2021-10-02 03:45","tags":["SideProject","reddit"],"image":null,"imageAlt":null,"__typename":"SocialMediaPost","provider":"Reddit","thirdPartyId":"pzlvrh","url":"https://www.reddit.com/r/SideProject/comments/pzlvrh/anyone_self_taught_successfully_turn_a_side/","originalUrl":"https://www.reddit.com/r/SideProject/comments/pzlvrh/anyone_self_taught_successfully_turn_a_side/","imageRemote":null,"video":null,"channel":"SideProject","channelUrl":"https://www.reddit.com/r/SideProject","author":"pizzaxp","authorUrl":"https://www.reddit.com/user/pizzaxp","authorImageRemote":null,"authorImage":null,"authorSlug":"pizzaxp","score":5,"views":null,"sharedCount":null,"likeCount":null,"sharedContent":null,"parent":{"localize":[{"title":"独学でサイドプロジェクトを製品化することに成功した人はいますか？","the_new_excerpt":"皆さんのCS/コーディングの経験や、どのようにしてこのようなクールなプロジェクトを作る専門知識を身につけたのかなど、洞察力に富んだお話を伺いたいと思っています。\nこのようなクールなプロジェクトを作成するための専門知識を持つに至ったのかについての洞察を期待しています。\n(もし、このサブカテゴリにふさわしい投稿でなかったらごめんなさい)。ここの投稿を定期的に見ていますが\n私はここの投稿を定期的に閲覧していますが、皆さんの作品にはいつも驚かされます。","locale":"ja"},{"title":"有没有人自学成才，并成功地将一个副业变成产品？","the_new_excerpt":"希望能听到一些关于人们的CS/编码经验的见解，以及他们如何\n的经验，以及他们是如何达到拥有专业知识来创造如此酷的项目的地步的。\n(如果这不是一个合适的帖子，请原谅）。) 我经常浏览这里的帖子\n我经常浏览这里的帖子，并且总是被你们这些人的作品所震撼...","locale":"zh"},{"title":"有沒有人自學成才，併成功地將一個副業變成產品？","the_new_excerpt":"希望能聽到一些關於人們的CS/編碼經驗的見解，以及他們如何\n的經驗，以及他們是如何達到擁有專業知識來創造如此酷的項目的地步的。\n(如果這不是一個合適的帖子，請原諒）。) 我經常瀏覽這裏的帖子\n我經常瀏覽這裏的帖子，並且總是被你們這些人的作品所震撼...","locale":"zh-Hant"}]}},{"id":"RedditPost-pzgd8f","excerpt":"","slug":"/reddit/r/SideProject/comments/pzgd8f/borgo_a_python_library_app_for_simple/","title":"Borgo - a python library + app for simple semi-automation (code that require human input).","date":"October 01, 2021","dateISO":"2021-10-01T23:10:52.000Z","datetime":"2021-10-01 23:10","tags":["SideProject","reddit"],"image":null,"imageAlt":"Reddit Image","__typename":"SocialMediaPost","provider":"Reddit","thirdPartyId":"pzgd8f","url":"https://www.reddit.com/r/SideProject/comments/pzgd8f/borgo_a_python_library_app_for_simple/","originalUrl":"https://www.reddit.com/r/SideProject/comments/pzgd8f/borgo_a_python_library_app_for_simple/","imageRemote":"https://external-preview.redd.it/um2_9_-tfWUCJUoj6S4nQCcqu3FSrSAqce6OWbkq89A.png?width=1080&crop=smart&auto=webp&s=2ae3364eef8808465249de75eb4da729ec6e7000","video":null,"channel":"SideProject","channelUrl":"https://www.reddit.com/r/SideProject","author":"nanermaner","authorUrl":"https://www.reddit.com/user/nanermaner","authorImageRemote":null,"authorImage":null,"authorSlug":"nanermaner","score":6,"views":null,"sharedCount":null,"likeCount":null,"sharedContent":null,"parent":{"localize":[{"title":"Borgo - シンプルな半自動化（人間の入力を必要とするコード）のためのpythonライブラリとアプリです。","the_new_excerpt":null,"locale":"ja"},{"title":"Borgo - 一个用于简单的半自动化（需要人类输入的代码）的python库+应用程序。","the_new_excerpt":null,"locale":"zh"},{"title":"Borgo - 一個用於簡單的半自動化（需要人類輸入的代碼）的python庫+應用程序。","the_new_excerpt":null,"locale":"zh-Hant"}]}},{"id":"RedditPost-pzeb5c","excerpt":"","slug":"/reddit/r/SideProject/comments/pzeb5c/i_built_a_simple_tool_for_youtubers_to_collect/","title":"I built a simple tool for youtubers to collect critique reviews","date":"October 01, 2021","dateISO":"2021-10-01T19:55:29.000Z","datetime":"2021-10-01 19:55","tags":["SideProject","reddit"],"image":null,"imageAlt":"Reddit Image","__typename":"SocialMediaPost","provider":"Reddit","thirdPartyId":"pzeb5c","url":"https://www.reddit.com/r/SideProject/comments/pzeb5c/i_built_a_simple_tool_for_youtubers_to_collect/","originalUrl":"https://www.reddit.com/r/SideProject/comments/pzeb5c/i_built_a_simple_tool_for_youtubers_to_collect/","imageRemote":"https://i.redd.it/y8vlz9f0wvq71.png?width=640&crop=smart&auto=webp&s=342aeaa5d8d19abe03b4e6dc01f468df5ff95fac","video":null,"channel":"SideProject","channelUrl":"https://www.reddit.com/r/SideProject","author":"SituationTight7033","authorUrl":"https://www.reddit.com/user/SituationTight7033","authorImageRemote":null,"authorImage":null,"authorSlug":"SituationTight7033","score":6,"views":null,"sharedCount":null,"likeCount":null,"sharedContent":null,"parent":{"localize":[{"title":"ユーチューバーが批評レビューを集めるためのシンプルなツールを作ってみた","the_new_excerpt":null,"locale":"ja"},{"title":"我建立了一个简单的工具，供优酷网友收集批评性评论","the_new_excerpt":null,"locale":"zh"},{"title":"我建立了一個簡單的工具，供優酷網友收集批評性評論","the_new_excerpt":null,"locale":"zh-Hant"}]}},{"id":"RedditPost-pz80ls","excerpt":"Hi there folks!\n\nI wrote an in-depth guide for product managers and serial entrepreneurs. It's\nabout developing a grocery delivery app. There you will find:\n\n 1. Why is now the most relevant time to develop a food delivery app?\n\n 2. what does the cost of developing a food delivery app depend on?\n\n…","slug":"/reddit/r/SideProject/comments/pz80ls/how_to_make_an_ondemand_grocery_delivery_app_a/","title":"How to Make an On-Demand Grocery Delivery App: A Comprehensive Guide","date":"October 01, 2021","dateISO":"2021-10-01T18:45:42.000Z","datetime":"2021-10-01 18:45","tags":["SideProject","reddit"],"image":null,"imageAlt":null,"__typename":"SocialMediaPost","provider":"Reddit","thirdPartyId":"pz80ls","url":"https://www.reddit.com/r/SideProject/comments/pz80ls/how_to_make_an_ondemand_grocery_delivery_app_a/","originalUrl":"https://www.reddit.com/r/SideProject/comments/pz80ls/how_to_make_an_ondemand_grocery_delivery_app_a/","imageRemote":null,"video":null,"channel":"SideProject","channelUrl":"https://www.reddit.com/r/SideProject","author":"Spdload","authorUrl":"https://www.reddit.com/user/Spdload","authorImageRemote":null,"authorImage":null,"authorSlug":"Spdload","score":6,"views":null,"sharedCount":null,"likeCount":null,"sharedContent":null,"parent":{"localize":[{"title":"オンデマンド食料品宅配アプリの作り方。包括的なガイド","the_new_excerpt":"皆さん、こんにちは。\n\n私は、プロダクトマネージャーとシリアルアントレプレナーのために、詳細なガイドを書きました。それは\n食料品配送アプリの開発についてです。そこには、以下のことが書かれています。\n\n 1. なぜ今が食料品配達アプリの開発に最も適した時期なのか？\n\n 2.食料品宅配アプリの開発コストは何に依存するのか？\n\n...","locale":"ja"},{"title":"如何制作一个按需提供杂货的应用程序。一个全面的指南","the_new_excerpt":"大家好!\n\n我为产品经理和连续创业者写了一份深度指南。它是\n关于开发一个食品杂货配送应用程序。在那里你会发现。\n\n 1. 为什么现在是开发食品配送应用的最相关时间？\n\n 2.开发一个食品递送应用程序的成本取决于什么？\n\n...","locale":"zh"},{"title":"如何製作一個按需提供雜貨的應用程序。一個全面的指南","the_new_excerpt":"大家好!\n\n我爲產品經理和連續創業者寫了一份深度指南。它是\n關於開發一個食品雜貨配送應用程序。在那裏你會發現。\n\n 1. 爲什麼現在是開發食品配送應用的最相關時間？\n\n 2.開發一個食品遞送應用程序的成本取決於什麼？\n\n...","locale":"zh-Hant"}]}},{"id":"RedditPost-pz354b","excerpt":"Today I finally launched my first mobile app, Cinevite\n[https://www.cinevite.com?utm_source=reddit&utm_medium=web]. Cinevite is a\nsimple app that lets you create event cards for movies and shows that can easily\nbe shared on social. The idea is simple but it sure didn't start that way. Like\nthe…","slug":"/reddit/r/SideProject/comments/pz354b/from_delusions_of_grandeur_to_a_simple_mvp_my/","title":"From delusions of grandeur to a simple MVP. My first business and mobile app are finally out the door.","date":"October 01, 2021","dateISO":"2021-10-01T13:30:29.000Z","datetime":"2021-10-01 13:30","tags":["SideProject","reddit"],"image":null,"imageAlt":null,"__typename":"SocialMediaPost","provider":"Reddit","thirdPartyId":"pz354b","url":"https://www.reddit.com/r/SideProject/comments/pz354b/from_delusions_of_grandeur_to_a_simple_mvp_my/","originalUrl":"https://www.reddit.com/r/SideProject/comments/pz354b/from_delusions_of_grandeur_to_a_simple_mvp_my/","imageRemote":null,"video":null,"channel":"SideProject","channelUrl":"https://www.reddit.com/r/SideProject","author":"SlimKale","authorUrl":"https://www.reddit.com/user/SlimKale","authorImageRemote":null,"authorImage":null,"authorSlug":"SlimKale","score":6,"views":null,"sharedCount":null,"likeCount":null,"sharedContent":null,"parent":{"localize":[{"title":"誇大妄想からシンプルなMVPへ。私の最初のビジネスとモバイルアプリは、ようやくドアを開けました。","the_new_excerpt":"本日、ついに初のモバイルアプリ「Cinevite」を発表しました。\n[https://www.cinevite.com?utm_source=reddit&utm_medium=web]をリリースしました。Cineviteは\n映画やショーのイベントカードを作ることができるシンプルなアプリで、社会的に簡単に共有することができます。\nソーシャルで共有することができます。アイデアはシンプルですが、最初からそうだったわけではありません。例えば\nその","locale":"ja"},{"title":"从妄想到简单的MVP。我的第一个业务和移动应用程序终于出炉了。","the_new_excerpt":"今天我终于推出了我的第一个移动应用程序，Cinevite\n[https://www.cinevite.com?utm_source=reddit&utm_medium=web]。Cinevite是一个\n一个简单的应用程序，让你为电影和节目创建活动卡片，可以很容易地在社会上分享。\n在社交网络上分享。这个想法很简单，但一开始肯定不是这样的。就像\n的。","locale":"zh"},{"title":"從妄想到簡單的MVP。我的第一個業務和移動應用程序終於出爐了。","the_new_excerpt":"今天我終於推出了我的第一個移動應用程序，Cinevite\n[https://www.cinevite.com?utm_source=reddit&utm_medium=web]。Cinevite是一個\n一個簡單的應用程序，讓你爲電影和節目創建活動卡片，可以很容易地在社會上分享。\n在社交網絡上分享。這個想法很簡單，但一開始肯定不是這樣的。就像\n的。","locale":"zh-Hant"}]}}]}},"pageContext":{"basePath":"/","pageType":"tag","tag":"SideProject","tagsFilter":{"date":{"gt":"2000-12-25T10:54:58.000Z"}},"filter":{"date":{"gt":"2000-12-25T10:54:58.000Z"},"tags":{"eq":"SideProject"}},"limit":500,"skip":500,"total":516,"totalPages":2,"currentPage":2,"maxWidth":1024,"maxHeight":512,"siteMetadata":null,"locale":"ja","hrefLang":"ja-JA","originalPath":"/tags/side-project/page/2","dateFormat":"YYYY-MM-DD"}},
    "staticQueryHashes": ["1239077767","2744905544","3025052997","3280999885"]}