{
    "componentChunkName": "component---node-modules-gatsby-theme-buzzing-src-gatsby-theme-timeline-templates-posts-query-js",
    "path": "/ja/page/11",
    "result": {"data":{"site":{"siteMetadata":{"title":"业余项目分享交流","author":"Buzzing.cc","description":"用中文浏览reddit业余项目讨论","keywords":["buzzing","业余项目","程序员"],"siteUrl":"https://sideproject.buzzing.cc","telegram":"@buzzingcc","iconUrl":"https://sideproject.buzzing.cc/avatar.png","defaultSocialImageUrl":null,"social":[{"name":"SideProject","url":"https://www.reddit.com/r/SideProject/","external":true},{"name":"Buzzing","url":"https://www.buzzing.cc/","external":true}],"menuLinks":[],"disqus":null,"utterances":null,"localize":[{"title":"Buzzing on Side Project","description":"See what's buzzing on Side Project in your native language","keywords":["buzzing","Side Project"],"locale":"en","social":{"name":null,"url":null,"external":null},"menuLinks":[{"name":"Weekly Selection","url":"/issues","external":null}]},{"title":"業餘項目分享交流","description":"用中文瀏覽reddit業餘項目討論","keywords":["buzzing","業餘項目","程序員"],"locale":"zh-Hant","social":null,"menuLinks":[]},{"title":"サイドプロジェクト","description":"人気のサイドプロジェクトを日本語で閲覧","keywords":["buzzing","サイドプロジェクト"],"locale":"ja","social":null,"menuLinks":[]}]}},"tagsGroup":{"group":[{"fieldValue":"SideProject","totalCount":501},{"fieldValue":"reddit","totalCount":501}]},"allBlogPost":{"nodes":[{"id":"RedditPost-pz354b","excerpt":"Today I finally launched my first mobile app, Cinevite\n[https://www.cinevite.com?utm_source=reddit&utm_medium=web]. Cinevite is a\nsimple app that lets you create event cards for movies and shows that can easily\nbe shared on social. The idea is simple but it sure didn't start that way. Like\nthe…","slug":"/reddit/r/SideProject/comments/pz354b/from_delusions_of_grandeur_to_a_simple_mvp_my/","title":"From delusions of grandeur to a simple MVP. My first business and mobile app are finally out the door.","date":"October 01, 2021","dateISO":"2021-10-01T13:30:29.000Z","datetime":"2021-10-01 13:30","tags":["SideProject","reddit"],"image":null,"imageAlt":null,"__typename":"SocialMediaPost","provider":"Reddit","thirdPartyId":"pz354b","url":"https://www.reddit.com/r/SideProject/comments/pz354b/from_delusions_of_grandeur_to_a_simple_mvp_my/","originalUrl":"https://www.reddit.com/r/SideProject/comments/pz354b/from_delusions_of_grandeur_to_a_simple_mvp_my/","imageRemote":null,"video":null,"channel":"SideProject","channelUrl":"https://www.reddit.com/r/SideProject","author":"SlimKale","authorUrl":"https://www.reddit.com/user/SlimKale","authorImageRemote":null,"authorImage":null,"authorSlug":"SlimKale","score":6,"views":null,"sharedCount":null,"likeCount":null,"sharedContent":null,"parent":{"localize":[{"title":"誇大妄想からシンプルなMVPへ。私の最初のビジネスとモバイルアプリは、ようやくドアを開けました。","the_new_excerpt":"本日、ついに初のモバイルアプリ「Cinevite」を発表しました。\n[https://www.cinevite.com?utm_source=reddit&utm_medium=web]をリリースしました。Cineviteは\n映画やショーのイベントカードを作ることができるシンプルなアプリで、社会的に簡単に共有することができます。\nソーシャルで共有することができます。アイデアはシンプルですが、最初からそうだったわけではありません。例えば\nその","locale":"ja"},{"title":"从妄想到简单的MVP。我的第一个业务和移动应用程序终于出炉了。","the_new_excerpt":"今天我终于推出了我的第一个移动应用程序，Cinevite\n[https://www.cinevite.com?utm_source=reddit&utm_medium=web]。Cinevite是一个\n一个简单的应用程序，让你为电影和节目创建活动卡片，可以很容易地在社会上分享。\n在社交网络上分享。这个想法很简单，但一开始肯定不是这样的。就像\n的。","locale":"zh"},{"title":"從妄想到簡單的MVP。我的第一個業務和移動應用程序終於出爐了。","the_new_excerpt":"今天我終於推出了我的第一個移動應用程序，Cinevite\n[https://www.cinevite.com?utm_source=reddit&utm_medium=web]。Cinevite是一個\n一個簡單的應用程序，讓你爲電影和節目創建活動卡片，可以很容易地在社會上分享。\n在社交網絡上分享。這個想法很簡單，但一開始肯定不是這樣的。就像\n的。","locale":"zh-Hant"}]}}]}},"pageContext":{"basePath":"/","pageType":"home","tagsFilter":{"date":{"gt":"2000-12-25T10:54:58.000Z"}},"filter":{"date":{"gt":"2000-12-25T10:54:58.000Z"}},"limit":50,"skip":500,"totalPages":11,"total":501,"currentPage":11,"maxWidth":1024,"maxHeight":512,"siteMetadata":null,"locale":"ja","hrefLang":"ja-JA","originalPath":"/page/11","dateFormat":"YYYY-MM-DD"}},
    "staticQueryHashes": ["1239077767","2744905544","3025052997","3280999885"]}