{
    "componentChunkName": "component---node-modules-gatsby-theme-buzzing-src-gatsby-theme-timeline-templates-posts-query-js",
    "path": "/zh-Hant/page/12",
    "result": {"data":{"site":{"siteMetadata":{"title":"业余项目分享交流","author":"Buzzing.cc","description":"用中文浏览reddit业余项目讨论","keywords":["buzzing","业余项目","程序员"],"siteUrl":"https://sideproject.buzzing.cc","telegram":"@buzzingcc","iconUrl":"https://sideproject.buzzing.cc/avatar.png","defaultSocialImageUrl":null,"social":[{"name":"SideProject","url":"https://www.reddit.com/r/SideProject/","external":true},{"name":"Buzzing","url":"https://www.buzzing.cc/","external":true}],"menuLinks":[],"disqus":null,"utterances":null,"localize":[{"title":"Buzzing on Side Project","description":"See what's buzzing on Side Project in your native language","keywords":["buzzing","Side Project"],"locale":"en","social":{"name":null,"url":null,"external":null},"menuLinks":[{"name":"Weekly Selection","url":"/issues","external":null}]},{"title":"業餘項目分享交流","description":"用中文瀏覽reddit業餘項目討論","keywords":["buzzing","業餘項目","程序員"],"locale":"zh-Hant","social":null,"menuLinks":[]},{"title":"サイドプロジェクト","description":"人気のサイドプロジェクトを日本語で閲覧","keywords":["buzzing","サイドプロジェクト"],"locale":"ja","social":null,"menuLinks":[]}]}},"tagsGroup":{"group":[{"fieldValue":"SideProject","totalCount":552},{"fieldValue":"reddit","totalCount":552}]},"allBlogPost":{"nodes":[{"id":"RedditPost-pz80ls","excerpt":"Hi there folks!\n\nI wrote an in-depth guide for product managers and serial entrepreneurs. It's\nabout developing a grocery delivery app. There you will find:\n\n 1. Why is now the most relevant time to develop a food delivery app?\n\n 2. what does the cost of developing a food delivery app depend on?\n\n…","slug":"/reddit/r/SideProject/comments/pz80ls/how_to_make_an_ondemand_grocery_delivery_app_a/","title":"How to Make an On-Demand Grocery Delivery App: A Comprehensive Guide","date":"October 01, 2021","dateISO":"2021-10-01T18:45:42.000Z","datetime":"2021-10-01 18:45","tags":["SideProject","reddit"],"image":null,"imageAlt":null,"__typename":"SocialMediaPost","provider":"Reddit","thirdPartyId":"pz80ls","url":"https://www.reddit.com/r/SideProject/comments/pz80ls/how_to_make_an_ondemand_grocery_delivery_app_a/","originalUrl":"https://www.reddit.com/r/SideProject/comments/pz80ls/how_to_make_an_ondemand_grocery_delivery_app_a/","imageRemote":null,"video":null,"channel":"SideProject","channelUrl":"https://www.reddit.com/r/SideProject","author":"Spdload","authorUrl":"https://www.reddit.com/user/Spdload","authorImageRemote":null,"authorImage":null,"authorSlug":"Spdload","score":6,"views":null,"sharedCount":null,"likeCount":null,"sharedContent":null,"parent":{"localize":[{"title":"オンデマンド食料品宅配アプリの作り方。包括的なガイド","the_new_excerpt":"皆さん、こんにちは。\n\n私は、プロダクトマネージャーとシリアルアントレプレナーのために、詳細なガイドを書きました。それは\n食料品配送アプリの開発についてです。そこには、以下のことが書かれています。\n\n 1. なぜ今が食料品配達アプリの開発に最も適した時期なのか？\n\n 2.食料品宅配アプリの開発コストは何に依存するのか？\n\n...","locale":"ja"},{"title":"如何制作一个按需提供杂货的应用程序。一个全面的指南","the_new_excerpt":"大家好!\n\n我为产品经理和连续创业者写了一份深度指南。它是\n关于开发一个食品杂货配送应用程序。在那里你会发现。\n\n 1. 为什么现在是开发食品配送应用的最相关时间？\n\n 2.开发一个食品递送应用程序的成本取决于什么？\n\n...","locale":"zh"},{"title":"如何製作一個按需提供雜貨的應用程序。一個全面的指南","the_new_excerpt":"大家好!\n\n我爲產品經理和連續創業者寫了一份深度指南。它是\n關於開發一個食品雜貨配送應用程序。在那裏你會發現。\n\n 1. 爲什麼現在是開發食品配送應用的最相關時間？\n\n 2.開發一個食品遞送應用程序的成本取決於什麼？\n\n...","locale":"zh-Hant"}]}},{"id":"RedditPost-pz354b","excerpt":"Today I finally launched my first mobile app, Cinevite\n[https://www.cinevite.com?utm_source=reddit&utm_medium=web]. Cinevite is a\nsimple app that lets you create event cards for movies and shows that can easily\nbe shared on social. The idea is simple but it sure didn't start that way. Like\nthe…","slug":"/reddit/r/SideProject/comments/pz354b/from_delusions_of_grandeur_to_a_simple_mvp_my/","title":"From delusions of grandeur to a simple MVP. My first business and mobile app are finally out the door.","date":"October 01, 2021","dateISO":"2021-10-01T13:30:29.000Z","datetime":"2021-10-01 13:30","tags":["SideProject","reddit"],"image":null,"imageAlt":null,"__typename":"SocialMediaPost","provider":"Reddit","thirdPartyId":"pz354b","url":"https://www.reddit.com/r/SideProject/comments/pz354b/from_delusions_of_grandeur_to_a_simple_mvp_my/","originalUrl":"https://www.reddit.com/r/SideProject/comments/pz354b/from_delusions_of_grandeur_to_a_simple_mvp_my/","imageRemote":null,"video":null,"channel":"SideProject","channelUrl":"https://www.reddit.com/r/SideProject","author":"SlimKale","authorUrl":"https://www.reddit.com/user/SlimKale","authorImageRemote":null,"authorImage":null,"authorSlug":"SlimKale","score":6,"views":null,"sharedCount":null,"likeCount":null,"sharedContent":null,"parent":{"localize":[{"title":"誇大妄想からシンプルなMVPへ。私の最初のビジネスとモバイルアプリは、ようやくドアを開けました。","the_new_excerpt":"本日、ついに初のモバイルアプリ「Cinevite」を発表しました。\n[https://www.cinevite.com?utm_source=reddit&utm_medium=web]をリリースしました。Cineviteは\n映画やショーのイベントカードを作ることができるシンプルなアプリで、社会的に簡単に共有することができます。\nソーシャルで共有することができます。アイデアはシンプルですが、最初からそうだったわけではありません。例えば\nその","locale":"ja"},{"title":"从妄想到简单的MVP。我的第一个业务和移动应用程序终于出炉了。","the_new_excerpt":"今天我终于推出了我的第一个移动应用程序，Cinevite\n[https://www.cinevite.com?utm_source=reddit&utm_medium=web]。Cinevite是一个\n一个简单的应用程序，让你为电影和节目创建活动卡片，可以很容易地在社会上分享。\n在社交网络上分享。这个想法很简单，但一开始肯定不是这样的。就像\n的。","locale":"zh"},{"title":"從妄想到簡單的MVP。我的第一個業務和移動應用程序終於出爐了。","the_new_excerpt":"今天我終於推出了我的第一個移動應用程序，Cinevite\n[https://www.cinevite.com?utm_source=reddit&utm_medium=web]。Cinevite是一個\n一個簡單的應用程序，讓你爲電影和節目創建活動卡片，可以很容易地在社會上分享。\n在社交網絡上分享。這個想法很簡單，但一開始肯定不是這樣的。就像\n的。","locale":"zh-Hant"}]}}]}},"pageContext":{"basePath":"/","pageType":"home","tagsFilter":{"date":{"gt":"2000-12-25T10:54:58.000Z"}},"filter":{"date":{"gt":"2000-12-25T10:54:58.000Z"}},"limit":50,"skip":550,"totalPages":12,"total":552,"currentPage":12,"maxWidth":1024,"maxHeight":512,"siteMetadata":null,"locale":"zh-Hant","hrefLang":"zh-Hant","originalPath":"/page/12","dateFormat":"YYYY-MM-DD"}},
    "staticQueryHashes": ["1239077767","2744905544","3025052997","3280999885"]}